How to Filter Data in R using dplyr
…
## Filtering one element

*Which Starwars characters have/don't have blue eyes?*

.pull-left[
Filter by one element with `==` (equal).

```r
# `eye_color` equal "blue"
starwars %>% filter(eye_color == "blue")
```

```
## # A tibble: 19 x 4
##    name               height hair_color   eye_color
##    <chr>               <int> <chr>        <chr>    
##  1 Luke Skywalker        172 blond        blue     
##  2 Owen Lars             178 brown, grey  blue     
##  3 Beru Whitesun lars    165 brown        blue     
##  4 Anakin Skywalker      188 blond        blue     
##  5 Wilhuff Tarkin        180 auburn, grey blue     
##  6 Chewbacca             228 brown        blue     
##  7 Jek Tono Porkins      180 brown        blue     
##  8 Lobot                 175 none         blue     
##  9 Mon Mothma            150 auburn       blue     
## 10 Qui-Gon Jinn          193 brown        blue     
## # ... with 9 more rows
```
]

.pull-right[
Remove one element with `!=` (not equal).

```r
starwars %>% 
  filter(eye_color != "blue")
```

```
## # A tibble: 68 x 4
##    name                  height hair_color    eye_color
##    <chr>                  <int> <chr>         <chr>    
##  1 C-3PO                    167 <NA>          yellow   
##  2 R2-D2                     96 <NA>          red      
##  3 Darth Vader              202 none          yellow   
##  4 Leia Organa              150 brown         brown    
##  5 R5-D4                     97 <NA>          red      
##  6 Biggs Darklighter        183 black         brown    
##  7 Obi-Wan Kenobi           182 auburn, white blue-gray
##  8 Han Solo                 180 brown         brown    
##  9 Greedo                   173 <NA>          black    
## 10 Jabba Desilijic Tiure    175 <NA>          orange   
## # ... with 58 more rows
```
…
## Filtering multiple elements

*Which characters have/don't have blue and yellow eyes?*

.pull-left[
Keep multiple elements using `%in%`.

```r
# `c()` combines values in a vector
starwars %>% 
  filter(eye_color %in% c("blue", "yellow"))
```

```
## # A tibble: 30 x 4
##    name               height hair_color   eye_color
##    <chr>               <int> <chr>        <chr>    
##  1 Luke Skywalker        172 blond        blue     
##  2 C-3PO                 167 <NA>         yellow   
##  3 Darth Vader           202 none         yellow   
##  4 Owen Lars             178 brown, grey  blue     
##  5 Beru Whitesun lars    165 brown        blue     
##  6 Anakin Skywalker      188 blond        blue     
##  7 Wilhuff Tarkin        180 auburn, grey blue     
##  8 Chewbacca             228 brown        blue     
##  9 Jek Tono Porkins      180 brown        blue     
## 10 Palpatine             170 grey         yellow   
## # ... with 20 more rows
```
]

.pull-right[
Remove multiple elements using `!` and `%in%`.

```r
# `c()` combines values in a vector
starwars %>% 
  filter(!eye_color %in% c("blue", "yellow"))
```

```
## # A tibble: 57 x 4
##    name                  height hair_color    eye_color
##    <chr>                  <int> <chr>         <chr>    
##  1 R2-D2                     96 <NA>          red      
##  2 Leia Organa              150 brown         brown    
##  3 R5-D4                     97 <NA>          red      
##  4 Biggs Darklighter        183 black         brown    
##  5 Obi-Wan Kenobi           182 auburn, white blue-gray
##  6 Han Solo                 180 brown         brown    
##  7 Greedo                   173 <NA>          black    
##  8 Jabba Desilijic Tiure    175 <NA>          orange   
##  9 Wedge Antilles           170 brown         hazel    
## 10 Yoda                      66 white         brown    
## # ... with 47 more rows
```
…
.pull-right[
Use `<` for "less than".

```r
starwars %>% 
  filter(height < 200)
```

```
## # A tibble: 70 x 4
##    name               height hair_color    eye_color
##    <chr>               <int> <chr>         <chr>    
##  1 Luke Skywalker        172 blond         blue     
##  2 C-3PO                 167 <NA>          yellow   
##  3 R2-D2                  96 <NA>          red      
##  4 Leia Organa           150 brown         brown    
##  5 Owen Lars             178 brown, grey   blue     
##  6 Beru Whitesun lars    165 brown         blue     
##  7 R5-D4                  97 <NA>          red      
##  8 Biggs Darklighter     183 black         brown    
##  9 Obi-Wan Kenobi        182 auburn, white blue-gray
## 10 Anakin Skywalker      188 blond         blue     
## # ... with 60 more rows
```
…
.pull-right[
Using `|` operator for "or".

```r
starwars %>% 
  filter(eye_color == "blue" | hair_color == "blond")
```

```
## # A tibble: 19 x 4
##    name               height hair_color   eye_color
##    <chr>               <int> <chr>        <chr>    
##  1 Luke Skywalker        172 blond        blue     
##  2 Owen Lars             178 brown, grey  blue     
##  3 Beru Whitesun lars    165 brown        blue     
##  4 Anakin Skywalker      188 blond        blue     
##  5 Wilhuff Tarkin        180 auburn, grey blue     
##  6 Chewbacca             228 brown        blue     
##  7 Jek Tono Porkins      180 brown        blue     
##  8 Lobot                 175 none         blue     
##  9 Mon Mothma            150 auburn       blue     
## 10 Qui-Gon Jinn          193 brown        blue     
## # ... with 9 more rows
```
…
## Filter character variables

*Which Starwars characters have/only have "blue" in eye_color?*

.pull-left[
All containing string "blue" using `str_detect()`.

```r
starwars %>% 
  filter(str_detect(eye_color, "blue"))
```

```
## # A tibble: 21 x 4
##    name               height hair_color    eye_color
##    <chr>               <int> <chr>         <chr>    
##  1 Luke Skywalker        172 blond         blue     
##  2 Owen Lars             178 brown, grey   blue     
##  3 Beru Whitesun lars    165 brown         blue     
##  4 Obi-Wan Kenobi        182 auburn, white blue-gray
##  5 Anakin Skywalker      188 blond         blue     
##  6 Wilhuff Tarkin        180 auburn, grey  blue     
##  7 Chewbacca             228 brown         blue     
##  8 Jek Tono Porkins      180 brown         blue     
##  9 Lobot                 175 none          blue     
## 10 Mon Mothma            150 auburn        blue     
## # ... with 11 more rows
```
…
.pull-right[
Remove missing values using `!is.na()`.

```r
starwars %>% 
  filter(!is.na(hair_color))
```

```
## # A tibble: 82 x 4
##    name               height hair_color    eye_color
##    <chr>               <int> <chr>         <chr>    
##  1 Luke Skywalker        172 blond         blue     
##  2 Darth Vader           202 none          yellow   
##  3 Leia Organa           150 brown         brown    
##  4 Owen Lars             178 brown, grey   blue     
##  5 Beru Whitesun lars    165 brown         blue     
##  6 Biggs Darklighter     183 black         brown    
##  7 Obi-Wan Kenobi        182 auburn, white blue-gray
##  8 Anakin Skywalker      188 blond         blue     
##  9 Wilhuff Tarkin        180 auburn, grey  blue     
## 10 Chewbacca             228 brown         blue     
## # ... with 72 more rows
```
…
## Advanced filtering

*Which Starwars characters are greater than the height mean (by species)?*

.pull-left[
Greater than the height `mean()`.

```r
starwars %>% 
  filter(height > mean(height, na.rm = TRUE))
```

```
## # A tibble: 51 x 4
##    name                  height eye_color species
##    <chr>                  <int> <chr>     <chr>  
##  1 Darth Vader              202 yellow    Human  
##  2 Owen Lars                178 blue      Human  
##  3 Biggs Darklighter        183 brown     Human  
##  4 Obi-Wan Kenobi           182 blue-gray Human  
##  5 Anakin Skywalker         188 blue      Human  
##  6 Wilhuff Tarkin           180 blue      Human  
##  7 Chewbacca                228 blue      Wookiee
##  8 Han Solo                 180 brown     Human  
##  9 Jabba Desilijic Tiure    175 orange    Hutt   
## 10 Jek Tono Porkins         180 blue      Human  
## # ... with 41 more rows
```
]

.pull-right[
Greater than the height `mean()` by species.

```r
starwars %>% 
  group_by(species) %>% 
  filter(height > mean(height, na.rm = TRUE)) %>%
  ungroup()
```

```
## # A tibble: 28 x 4
##    name              height eye_color species
##    <chr>              <int> <chr>     <chr>  
##  1 C-3PO                167 yellow    Droid  
##  2 Darth Vader          202 yellow    Human  
##  3 Owen Lars            178 blue      Human  
##  4 Biggs Darklighter    183 brown     Human  
##  5 Obi-Wan Kenobi       182 blue-gray Human  
##  6 Anakin Skywalker     188 blue      Human  
##  7 Wilhuff Tarkin       180 blue      Human  
##  8 Han Solo             180 brown     Human  
##  9 Jek Tono Porkins     180 blue      Human  
## 10 Boba Fett            183 brown     Human  
## # ... with 18 more rows
```
…
